shruti.vats@gingerwebs.com,Shruti
binothnavilson.e@gmail.com,PONDICHERRY
bidisapal81768@gmail.com,AGARTALA
drthangamani26@gmail.com,Trichy
drsurhudpatil@gmail.com,AURANGABAD
vishaalnagre1@gmail.com,AURANGABAD
ojasalunke54@gmail.com,PUNE
laxmikalyankar70@gmail.com,NANDED
vaibhavnayak020@gmail.com,NAGPUR
krantisuryamane@gmail.com,LATUR
samruddhinsanap@gmail.com,NANDED
deepthysurendran18@gmail.com,KOLLAM
mishra.nitesh1002@gmail.com,MUMBAI
pcwanjari@gmail.com,NAGPUR
sucheta_waghmare@yahoo.com,PUNE
abinesh.288@gmail.com,Coimbatore
vigneshvarv241995@gmail.com,SALEM
ashwini.bhagat0@gmail.com,NAGPUR
anjaly2k13@gmail.com,KOLLAM
shubhamborekar111@gmail.com,NAGPUR
kirthigavetrivel92@gmail.com,PONDICHERRY
kul.ani662@gmail.com,NANDED
anvita8855@gmail.com,PUNE
anirudh.syam@gmail.com,TRIVANDRUM
sanketalokhande96@gmail.com,MUMBAI
sohansuryawanshi@gmail.com,MUMBAI
surajphilip93@gmail.com,THRISSUR
sidharthpas@gmail.com,THRISSUR
abhayssu612@gmail.com,NAGPUR
anikarande123@gmail.com,AURANGABAD
abhilashasonawane31@gmail.com,PUNE
ru_del@rediffmail.com,PUNE
akankshaugedr@gmail.com,NAGPUR
ask26031996@gmail.com,NANDED
pramodborana112@gmail.com,JODHPUR
drashwinikorde1994@gmail.com,NANDED
saini.suaha95@gmail.com,JODHPUR
arka.14march@gmail.com,SILCHAR
sonalichavan.5797@gmail.com,NASHIK
spmulaokar@gmail.com,NASHIK
tanu.v.yedte@gmail.com,AURANGABAD
mbparihar786@gmail.com,NASHIK
aishwaryakulkarni153@gmail.com,GULBARGA
ashishchavan4444@gmail.com,PUNE
preetamnarode1234@gmail.com,AURANGABAD
pandagaleshrikant1@gmail.com,PUNE
paragjain1995@gmail.com,REWA
nagesh.ngd@gmail.com,NAGPUR
ajuachankunju1803@gmail.com,KOTTAYAM
jadhavp682665@gmail.com,AMBAJOGAI
pavandeshmukh893@gmail.com,AURANGABAD
suchipai21@gmail.com,MUMBAI
arya.latha03@gmail.com,KOLLAM
dhanshrikurekar@gmail.com,NAGPUR
jyotikrishna39@gmail.com,Burla
yogeshwarigutte123@gmail.com,AMBAJOGAI
shubhamdhomane@gmail.com,NAGPUR
monalisapanjwani@gmail.com,MUMBAI
pallavichauhan804@gmail.com,NAGPUR
multanimankirat@gmail.com,PUNE
sankethyadav96@gmail.com,Davangere
abhilashpradhan224@gmail.com,Burla
meetsanjaykumar333@gmail.com,GULBARGA
drrohanbahl@gmail.com,PUNE
abi.hemanthkumar@gmail.com,PONDICHERRY
artiv800@gmail.com,NAGPUR
vasudevan.ashwath@gmail.com,MUMBAI
g.sundarraajan@gmail.com,PONDICHERRY
rmariya5@gmail.com,KOTTAYAM
hetvishah28091997@gmail.com,MUMBAI
sscoolguy96@gmail.com,Coimbatore
carolinedivya123@gmail.com,Coimbatore
pranavwasadikar@gmail.com,PUNE
sayuj8@gmail.com,MUMBAI
violacutinha97@gmail.com,MUMBAI
nishitpatel1610@gmail.com,MUMBAI
saritasah0494@gmail.com,DIBRUGARH
joy_chittilappilly@yahoo.com,THRISSUR
nareshdm4880@gmail.com,Davangere
meganatha177@gmail.com,Tirunelveli
garun4898@gmail.com,Tirunelveli
pedamkar65@gmail.com,MUMBAI
trishasrivastava0903@gmail.com,MUMBAI
dixshakatre@gmail.com,NAGPUR
hunivira@gmail.com,MUMBAI
amermuthu97@gmail.com,NAGERCOIL
wjaipuri@gmail.com,MUMBAI
jaiswal.smital3@gmail.com,PUNE
gopal30rlt@gmail.com,NAGPUR
pranavghandure32@gmail.com,PUNE
ravisudarmani96@gmail.com,Tirunelveli
vaishnavi4584@gmail.com,MUMBAI
tusharakare@gmail.com,NAGPUR
milindlanjewar7@gmail.com,NAGPUR
patilsurajc@gmail.com,LATUR
subashree0723@gmail.com,PONDICHERRY
yuvrajpatil11111@gmail.com,AURANGABAD
sanketgore73@gmail.com,LATUR
balarammoharana20@gmail.com,Burla
aashishnarute1496@gmail.com,PUNE
ashishbawanakr505@gmail.com,NAGPUR
vaibhav96912@gmail.com,NAGPUR
dadasosanap1489@gmail.com,MUMBAI
rishi.shahade7@gmail.com,MUMBAI
apekshadeshmukh50@gmail.com,AMBAJOGAI
mohdamir8898@gmail.com,PUNE
shreyamnandeshwar@gmail.com,MUMBAI
akashsharma511997@gmail.com,REWA
kanodjepankaj842@gmail.com,NAGPUR
nadagoudasubhash@gmail.com,GULBARGA
deeksharani910@gmail.com,KOTA
himanshumeghwani96@gmail.com,JODHPUR
mathewjohnmathai@gmail.com,TRIVANDRUM
shakthijuwala63@gmail.com,Coimbatore
saishashiprakash12@gmail.com,Burla
shaggyp.2111@gmail.com,MUMBAI
samrutwarmadhavi@gmail.com,MUMBAI
 deepti.vaghmshi@gmail.com,RAJKOT
 vaibhav0808vbd@gmail.com,RAJKOT
 poojadattani999@gmail.com ,RAJKOT
 kankubaruah121@gmail.com ,Jorhat
